$TTL 3h
@       IN      SOA     named.tpre522.net. bofh.tpre522.net. (
                                 2010120701
                                 8H
                                 2H
                                 1W
                                 1D )
@       IN      NS      named.tpre522.net.
@       IN      NS      ipfix.tpre522.net.

named   IN      A       192.168.102.1
ipfix   IN      A       192.168.102.111
$GENERATE 1-10 pc$ IN  A 192.168.102.$
