%!PS-Adobe-3.0
%%Creator: Applixware
%%Pages: 3
%%DocumentNeededResources: font Helvetica Times-Bold Times-Roman
%%EndComments
%%BeginProlog
/bd { bind def } bind def
/n  { newpath } bd
/L  { lineto } bd
/M  { moveto } bd
/C  { curveto } bd
/RL { rlineto } bd
/MR { rmoveto } bd
/ST { show } bd
/S  { stroke } bd
/SP { strokepath } bd
/GS { gsave } bd
/GR { grestore } bd
/GRAY { setgray } bd
/AXscale { 72 1000 div } bd
/DOSETUP {
      AXscale dup scale
      1 setlinecap
      4 setlinewidth
      1 setlinejoin
      4 setmiterlimit
      [] 0 setdash
} bd
/DOCLIPBOX {
    n 4 2 roll 2 copy M 4 1 roll exch 2 copy L exch pop 2 copy L pop
    exch L closepath clip
} bd
/AXredict 14 dict def
/X {
      AXredict begin
      exch /str exch def
      str stringwidth pop sub
      str length div 0 str ashow
      end
} bd
/FINDFONT {
    { findfont } stopped
    { /Times-Roman findfont } if
} bd
/POINTSCALEFONT { AXscale div scalefont } bd
/DOTSCALEFONT { scalefont } bd
/SETFONT { setfont } bd
/p01 <000e0e0600e0e060> def
/p02 <0f0f0f0ff0f0f0f0> def
/p03 <ff1f1f9ffff1f1f9> def
/p10 <040f0f0e40f0f0e0> def
/p12 <0006060000606000> def
/p13 <ff9f9ffffff9f9ff> def
/p21 <ff0f0f1ffff0f0f1> def
/ReEncodeSmall {
      AXredict begin
      /newcn exch def
      /newfn exch def
      /basefn exch def
      /basefd basefn FINDFONT def
      /newf basefd maxlength dict def
      basefd
      {
      exch dup /FID ne
      {
        dup dup /Encoding eq exch /FontBBox eq or
        { exch dup length array copy newf 3 1 roll put }
        { exch newf 3 1 roll put }
        ifelse
      }
      { pop pop }
      ifelse
      } forall
      newf /FontName newfn put
      newcn aload pop
      newcn length 2 idiv
      { newf /Encoding get 3 1 roll put }
      repeat
      newfn newf definefont pop
      end
} def
/evISOLatin1Encoding [
49 /one
185 /onesuperior
179 /threesuperior
178 /twosuperior
40 /parenleft
242 /ograve
210 /Ograve
186 /ordmasculine
183 /periodcentered
93 /bracketright
36 /dollar
240 /eth
52 /four
45 /hyphen
159 /tilde
95 /underscore
35 /numbersign
170 /ordfeminine
53 /five
56 /eight
162 /cent
33 /exclam
215 /multiply
42 /asterisk
189 /onehalf
171 /guillemotleft
227 /atilde
195 /Atilde
254 /thorn
222 /Thorn
124 /bar
123 /braceleft
165 /yen
65 /A
66 /B
67 /C
68 /D
69 /E
70 /F
71 /G
44 /comma
72 /H
58 /colon
73 /I
74 /J
75 /K
76 /L
249 /ugrave
232 /egrave
217 /Ugrave
200 /Egrave
77 /M
78 /N
79 /O
80 /P
180 /acute
81 /Q
50 /two
82 /R
83 /S
84 /T
85 /U
86 /V
87 /W
88 /X
89 /Y
90 /Z
47 /slash
191 /questiondown
184 /cedilla
97 /a
60 /less
98 /b
190 /threequarters
99 /c
100 /d
55 /seven
101 /e
102 /f
54 /six
103 /g
51 /three
104 /h
105 /i
106 /j
107 /k
161 /exclamdown
108 /l
109 /m
57 /nine
110 /n
111 /o
112 /p
39 /quoteright
34 /quotedbl
253 /yacute
237 /iacute
225 /aacute
221 /Yacute
205 /Iacute
193 /Aacute
113 /q
114 /r
115 /s
116 /t
117 /u
118 /v
119 /w
120 /x
121 /y
122 /z
92 /backslash
163 /sterling
251 /ucircumflex
244 /ocircumflex
238 /icircumflex
234 /ecircumflex
226 /acircumflex
219 /Ucircumflex
212 /Ocircumflex
206 /Icircumflex
202 /Ecircumflex
194 /Acircumflex
158 /circumflex
223 /germandbls
255 /ydieresis
252 /udieresis
246 /odieresis
239 /idieresis
235 /edieresis
228 /adieresis
220 /Udieresis
214 /Odieresis
207 /Idieresis
203 /Edieresis
196 /Adieresis
168 /dieresis
188 /onequarter
176 /degree
164 /currency
156 /ring
187 /guillemotright
208 /Eth
32 /space
177 /plusminus
229 /aring
197 /Aring
61 /equal
38 /ampersand
37 /percent
230 /ae
59 /semicolon
247 /divide
43 /plus
94 /asciicircum
174 /registered
181 /mu
125 /braceright
62 /greater
243 /oacute
211 /Oacute
64 /at
166 /brokenbar
173 /minus
248 /oslash
216 /Oslash
172 /logicalnot
198 /AE
182 /paragraph
236 /igrave
224 /agrave
204 /Igrave
192 /Agrave
48 /zero
175 /macron
41 /parenright
241 /ntilde
209 /Ntilde
96 /quoteleft
46 /period
231 /ccedilla
199 /Ccedilla
167 /section
63 /question
155 /dotlessi
91 /bracketleft
157 /grave
169 /copyright
250 /uacute
233 /eacute
218 /Uacute
201 /Eacute
245 /otilde
213 /Otilde
126 /asciitilde
] def
/DEFINEFONTS {
      /AXFont0p180000 /Helvetica FINDFONT 18.000 POINTSCALEFONT def
      /Times-Bold /ETimes-Bold evISOLatin1Encoding ReEncodeSmall
      /AXFont1p360000 /ETimes-Bold FINDFONT 36.000 POINTSCALEFONT def
      /Times-Bold /ETimes-Bold evISOLatin1Encoding ReEncodeSmall
      /AXFont1p120000 /ETimes-Bold FINDFONT 12.000 POINTSCALEFONT def
      /Times-Bold /ETimes-Bold evISOLatin1Encoding ReEncodeSmall
      /AXFont1p180000 /ETimes-Bold FINDFONT 18.000 POINTSCALEFONT def
      /Times-Roman /ETimes-Roman evISOLatin1Encoding ReEncodeSmall
      /AXFont2p120000 /ETimes-Roman FINDFONT 12.000 POINTSCALEFONT def
} def
%%EndProlog
%%BeginSetup
%%IncludeResource: font Helvetica
%%IncludeResource: font Times-Bold
%%IncludeResource: font Times-Roman

DEFINEFONTS
systemdict /setcmykcolor known
{
       /SET_CMYK { setcmykcolor } bd
}
{
       /SET_CMYK {
    	 exch .2 mul add
    	 exch .4 mul add
    	 exch .3 mul add
    	 dup 1 gt
    	 {pop 1} {} ifelse
    	 1 exch sub setgray
       } bd
}
ifelse
systemdict /colorimage known
{
       /GET_CMYK { currentcmykcolor } bd
}
{
       /GET_CMYK {
    	 0 0 0 
    	 1 currentgray sub
       } bd
}
ifelse
systemdict /colorimage known
{
	/COLORIMAGE { false 4 colorimage } bd
       /SELECTBUF { pop } bd
}
{
       /COLORIMAGE { image } bd
       /SELECTBUF { exch pop } bd
}
ifelse
%%EndSetup
%%Page: 1 1
%%BeginPageSetup
save /AXPageSave exch def
DOSETUP
0 11692 8267 0 DOCLIPBOX
%%EndPageSetup
0.0000 0.0000 0.0000 1.0000 SET_CMYK
AXFont1p360000 SETFONT
GS
n
1076 10240 M
(TP1 - Type Abstrait Vecteur) 6114 X
GR
0.0000 0.0000 0.0000 1.0000 SET_CMYK
AXFont2p120000 SETFONT
GS
n
787 9309 M
(L'objet du TP est de construire le type vecteur et de le tester avec un programm\
e client.) 5836 X
GR
0.0000 0.0000 0.0000 1.0000 SET_CMYK
GS
n
787 8737 M
(1\) Compilation: rapatrier dans votre r\351pertoire de travail  une copie du dos\
sier tp1_lo43 qui contient) 6663 X
GR
0.0000 0.0000 0.0000 1.0000 SET_CMYK
GS
n
787 8451 M
(un squelette de programme et un makefile:) 2850 X
GR
0.0000 0.0000 0.0000 1.0000 SET_CMYK
AXFont1p120000 SETFONT
GS
n
787 7873 M
(Vecteur.h) 700 X
GR
0.0000 0.0000 0.0000 1.0000 SET_CMYK
AXFont2p120000 SETFONT
GS
n
1487 7873 M
( : interface du TAD) 1305 X
GR
0.0000 0.0000 0.0000 1.0000 SET_CMYK
AXFont1p120000 SETFONT
GS
n
787 7581 M
(Vecteur.cc) 755 X
GR
0.0000 0.0000 0.0000 1.0000 SET_CMYK
AXFont2p120000 SETFONT
GS
n
1542 7581 M
( : impl\351mentation) 1174 X
GR
0.0000 0.0000 0.0000 1.0000 SET_CMYK
AXFont1p120000 SETFONT
GS
n
787 7003 M
(Client.c) 551 X
GR
0.0000 0.0000 0.0000 1.0000 SET_CMYK
AXFont2p120000 SETFONT
GS
n
1338 7003 M
(c : programme de test du TAD \(contient le main\)) 3263 X
GR
0.0000 0.0000 0.0000 1.0000 SET_CMYK
AXFont1p120000 SETFONT
GS
n
787 6425 M
(Makefile ) 671 X
GR
0.0000 0.0000 0.0000 1.0000 SET_CMYK
AXFont2p120000 SETFONT
GS
n
1458 6425 M
(: permet la compilation et l'\351dition de liens du programme) 3890 X
GR
0.0000 0.0000 0.0000 1.0000 SET_CMYK
GS
n
787 5853 M
(Apres avoir copier les fichiers, tester la compilation, taper "make") 4408 X
GR
0.0000 0.0000 0.0000 1.0000 SET_CMYK
GS
n
787 5281 M
(2\) Construction du TAD) 1632 X
GR
0.0000 0.0000 0.0000 1.0000 SET_CMYK
GS
n
787 4709 M
(Compl\
\351ter les fichiers Vecteur.h et Vecteur.cc avec les op\351rateurs demand\351s) 5105 X
GR
0.0000 0.0000 0.0000 1.0000 SET_CMYK
GS
n
787 4137 M
(Proc\351der par \351tapes en v\351rifiant la syntaxe \(compilation\) au fur et a\
 mesure) 5009 X
GR
0.0000 0.0000 0.0000 1.0000 SET_CMYK
GS
n
787 3565 M
(Pour les diff\351rents constructeurs/destructeur on d\351finira des compteurs st\
atiques) 5331 X
GR
0.0000 0.0000 0.0000 1.0000 SET_CMYK
GS
n
787 3279 M
(pour calculer le nombre de passages dans chacun d'eux) 3692 X
GR
0.0000 0.0000 0.0000 1.0000 SET_CMYK
GS
n
787 2707 M
(3\) Programme client) 1371 X
GR
0.0000 0.0000 0.0000 1.0000 SET_CMYK
GS
n
787 2135 M
(Compl\351ter le programme client avec des exemples d'utilisation du TAD) 4806 X
GR
%%PageTrailer
AXPageSave restore
showpage
%%Page: 2 2
%%BeginPageSetup
save /AXPageSave exch def
DOSETUP
%%EndPageSetup
0.0000 0.0000 0.0000 1.0000 SET_CMYK
AXFont1p360000 SETFONT
GS
n
3334 10240 M
(TD no2) 1598 X
GR
0.0000 0.0000 0.0000 1.0000 SET_CMYK
AXFont1p180000 SETFONT
GS
n
787 9312 M
(1\) Soit les quatre exemples d'impl\351mentation de l'adition de 2 ) 6645 X
GR
0.0000 0.0000 0.0000 1.0000 SET_CMYK
GS
n
787 9023 M
(vecteurs suivants:) 1909 X
GR
0.0000 0.0000 0.0000 1.0000 SET_CMYK
AXFont2p120000 SETFONT
GS
n
787 8718 M
(vecteur vecteur::operator+\(vecteur& b\)) 2620 X
GR
0.0000 0.0000 0.0000 1.0000 SET_CMYK
GS
n
787 8532 M
({) 80 X
GR
0.0000 0.0000 0.0000 1.0000 SET_CMYK
GS
n
1287 8346 M
(vecteur c\(taille\);) 1096 X
GR
0.0000 0.0000 0.0000 1.0000 SET_CMYK
GS
n
1287 7974 M
(for \(int i = 0; i < taille && i < b.taille; i++\)) 2864 X
GR
0.0000 0.0000 0.0000 1.0000 SET_CMYK
GS
n
1787 7788 M
(c.v[i] = v[i] + b.v[i];) 1366 X
GR
0.0000 0.0000 0.0000 1.0000 SET_CMYK
GS
n
1287 7602 M
(return c;) 560 X
GR
0.0000 0.0000 0.0000 1.0000 SET_CMYK
GS
n
787 7416 M
(}) 80 X
GR
0.0000 0.0000 0.0000 1.0000 SET_CMYK
GS
n
787 7230 M
(vecteur& vecteur::operator+\(vecteur& b\)) 2750 X
GR
0.0000 0.0000 0.0000 1.0000 SET_CMYK
GS
n
787 7044 M
({) 80 X
GR
0.0000 0.0000 0.0000 1.0000 SET_CMYK
GS
n
1287 6858 M
(vecteur c\(taille\);) 1096 X
GR
0.0000 0.0000 0.0000 1.0000 SET_CMYK
GS
n
1287 6486 M
(for \(int i = 0; i < taille && i < b.taille; i++\)) 2864 X
GR
0.0000 0.0000 0.0000 1.0000 SET_CMYK
GS
n
1787 6300 M
(c.v[i] = v[i] + b.v[i];) 1366 X
GR
0.0000 0.0000 0.0000 1.0000 SET_CMYK
GS
n
1287 6114 M
(return c;) 560 X
GR
0.0000 0.0000 0.0000 1.0000 SET_CMYK
GS
n
787 5928 M
(}) 80 X
GR
0.0000 0.0000 0.0000 1.0000 SET_CMYK
GS
n
787 5742 M
(vecteur vecteur::operator+\(vecteur& b\)) 2620 X
GR
0.0000 0.0000 0.0000 1.0000 SET_CMYK
GS
n
787 5556 M
({) 80 X
GR
0.0000 0.0000 0.0000 1.0000 SET_CMYK
GS
n
1287 5370 M
(vecteur* c;) 735 X
GR
0.0000 0.0000 0.0000 1.0000 SET_CMYK
GS
n
1287 5184 M
(c = new vecteur\(taille\);) 1551 X
GR
0.0000 0.0000 0.0000 1.0000 SET_CMYK
GS
n
1287 4812 M
(for \(int i = 0; i < taille && i < b.taille; i++\)) 2864 X
GR
0.0000 0.0000 0.0000 1.0000 SET_CMYK
GS
n
1787 4626 M
(c->v[i] = v[i] + b.v[i];) 1474 X
GR
0.0000 0.0000 0.0000 1.0000 SET_CMYK
GS
n
1287 4440 M
(return *c;) 643 X
GR
0.0000 0.0000 0.0000 1.0000 SET_CMYK
GS
n
787 4254 M
(}) 80 X
GR
0.0000 0.0000 0.0000 1.0000 SET_CMYK
GS
n
787 4068 M
(vecteur& vecteur::operator+\(vecteur& b\)) 2750 X
GR
0.0000 0.0000 0.0000 1.0000 SET_CMYK
GS
n
787 3882 M
({) 80 X
GR
0.0000 0.0000 0.0000 1.0000 SET_CMYK
GS
n
1287 3696 M
(vecteur* c;) 735 X
GR
0.0000 0.0000 0.0000 1.0000 SET_CMYK
GS
n
1287 3510 M
(c = new vecteur\(taille\);) 1551 X
GR
0.0000 0.0000 0.0000 1.0000 SET_CMYK
GS
n
1287 3138 M
(for \(int i = 0; i < taille && i < b.taille; i++\)) 2864 X
GR
0.0000 0.0000 0.0000 1.0000 SET_CMYK
GS
n
1787 2952 M
(c->v[i] = v[i] + b.v[i];) 1474 X
GR
0.0000 0.0000 0.0000 1.0000 SET_CMYK
GS
n
1287 2766 M
(return *c;) 643 X
GR
0.0000 0.0000 0.0000 1.0000 SET_CMYK
GS
n
787 2580 M
(}) 80 X
GR
0.0000 0.0000 0.0000 1.0000 SET_CMYK
GS
n
787 2394 M
(a\) Expliquer quelles versions de l'op\351rateurs ne sont pas correctes. ) 4485 X
GR
0.0000 0.0000 0.0000 1.0000 SET_CMYK
GS
n
787 2108 M
(b\) Donner un diagramme temporel d\351taill\351 \(au pas \340 pas\) de l'\351vol\
ution de  l'occupation des diff\351-) 6561 X
GR
0.0000 0.0000 0.0000 1.0000 SET_CMYK
GS
n
787 1922 M
(rentes zones de m\351moire \(pile, tas\) par les objets et param\350tres.) 4224 X
GR
0.0000 0.0000 0.0000 1.0000 SET_CMYK
GS
n
787 1636 M
(On d\351taillera le passage des param\350tres \(d'entr\351e et de sortie\) par v\
aleur, par adresse, par r\351f\351rence.) 6642 X
GR
%%PageTrailer
AXPageSave restore
showpage
%%Page: 3 3
%%BeginPageSetup
save /AXPageSave exch def
DOSETUP
%%EndPageSetup
0.0000 0.0000 0.0000 1.0000 SET_CMYK
AXFont1p180000 SETFONT
GS
n
787 10474 M
(2\) Passage des param\350tres) 2798 X
GR
0.0000 0.0000 0.0000 1.0000 SET_CMYK
AXFont2p120000 SETFONT
GS
n
787 10169 M
(a\) surcharger l'op\351rateur d'acc\350s [ ] \340 l'\351l\351ment i du vecteur,) 4044 X
GR
0.0000 0.0000 0.0000 1.0000 SET_CMYK
GS
n
787 9883 M
(peut on \351crire:) 962 X
GR
0.0000 0.0000 0.0000 1.0000 SET_CMYK
GS
n
787 9597 M
(e = v[i];) 539 X
GR
0.0000 0.0000 0.0000 1.0000 SET_CMYK
GS
n
787 9311 M
(v[i] = 3;) 548 X
GR
0.0000 0.0000 0.0000 1.0000 SET_CMYK
GS
n
787 9025 M
(expliquer le passage des param\350tres dans la pile dans les cas o\371 la valeur\
 de retour est int ou int&) 6483 X
GR
0.0000 0.0000 0.0000 1.0000 SET_CMYK
GS
n
787 8739 M
(b\) expliquer la diff\351rence entre:) 2110 X
GR
0.0000 0.0000 0.0000 1.0000 SET_CMYK
GS
n
787 8453 M
(a = a;) 372 X
GR
0.0000 0.0000 0.0000 1.0000 SET_CMYK
GS
n
787 8167 M
(a = b = c;) 633 X
GR
0.0000 0.0000 0.0000 1.0000 SET_CMYK
GS
n
787 7881 M
(a = b + c;) 633 X
GR
0.0000 0.0000 0.0000 1.0000 SET_CMYK
GS
n
787 7595 M
(du point de vue du passage des param\350tres) 2836 X
GR
0.0000 0.0000 0.0000 1.0000 SET_CMYK
AXFont1p180000 SETFONT
GS
n
787 7225 M
(3\) M\351canismes d'appels des op\351rateurs) 4167 X
GR
0.0000 0.0000 0.0000 1.0000 SET_CMYK
AXFont2p120000 SETFONT
GS
n
787 6920 M
(a\) expliciter l'appel, en donnant la notation fonctionnelle \351quivalente, des\
 diff\351rents op\351rateurs dans ) 6709 X
GR
0.0000 0.0000 0.0000 1.0000 SET_CMYK
GS
n
787 6734 M
(les instructions suivantes:) 1710 X
GR
0.0000 0.0000 0.0000 1.0000 SET_CMYK
GS
n
787 6448 M
(c = a + b;) 633 X
GR
0.0000 0.0000 0.0000 1.0000 SET_CMYK
GS
n
787 6162 M
(cout << a << b;) 1033 X
GR
0.0000 0.0000 0.0000 1.0000 SET_CMYK
GS
n
787 5876 M
(v[i] = v[j] = 2;) 967 X
GR
0.0000 0.0000 0.0000 1.0000 SET_CMYK
GS
n
787 5590 M
(b\
\) dans chaque cas souligner quel sont les objets "appelant" \
\(une m\351thode\) et lesquels sont les para-) 6649 X
GR
0.0000 0.0000 0.0000 1.0000 SET_CMYK
GS
n
787 5404 M
(m\350tres) 445 X
GR
0.0000 0.0000 0.0000 1.0000 SET_CMYK
AXFont1p180000 SETFONT
GS
n
787 5034 M
(4\) M\351thodes friend) 2028 X
GR
0.0000 0.0000 0.0000 1.0000 SET_CMYK
AXFont2p120000 SETFONT
GS
n
787 4729 M
(a\) pourquoi d\351clarer friend les op\351rateurs produit par un scalaire * et e\
ntree/sortie <<, >>) 5944 X
GR
0.0000 0.0000 0.0000 1.0000 SET_CMYK
GS
n
787 4443 M
(b\) dans ce cas d\351tailler le m\351canisme d'appel et d'identification des par\
am\350tres) 5280 X
GR
%%PageTrailer
AXPageSave restore
showpage
%%Trailer
%%EOF
